-------------------------------------------------------------------------------
Test set: cl.uchile.dcc.staticlibrary.sap.Point2DWrapTest
-------------------------------------------------------------------------------
Tests run: 7, Failures: 0, Errors: 0, Skipped: 0, Time elapsed: 0.002 sec
